%YAML 1.1
%TAG !u! tag:unity3d.com,2011:
--- !u!162 &1
EditorUserSettings:
  m_ObjectHideFlags: 0
  serializedVersion: 4
  m_ConfigSettings:
    RecentlyUsedSceneGuid-0:
      value: 570802505c070d580c0d087214775a16401641782979746175281c37b1e46c68
      flags: 0
    RecentlyUsedSceneGuid-1:
      value: 05080d5557560a0f59590f7013735d444e4e1e7d2a2d76647e7c4f37e0b4666f
      flags: 0
    RecentlyUsedSceneGuid-2:
      value: 520100045551580f55595d26447759444e4f49737a7b2736747d1b67bbb36168
      flags: 0
    RecentlyUsedSceneGuid-3:
      value: 5300000556500f030c575b7314700c44434f4a2b787023692b714d63b6b33060
      flags: 0
    RecentlyUsedSceneGuid-4:
      value: 5704060703025f080f575c7513270e444616492e2f2977657b7d1c36b5e2663a
      flags: 0
    RecentlyUsedSceneGuid-5:
      value: 0609005354575c5a0f590a7546200b44104e1a282e2d7569797a4f30e0b8636c
      flags: 0
    RecentlyUsedSceneGuid-6:
      value: 515250075c0c595e5f5a5e71122159444e4e4a2f7a7d7f602f284d66b4b76661
      flags: 0
    RecentlyUsedSceneGuid-7:
      value: 05000d5057065e0f5f5958704076594413154f2f782c2068782a4460e6b4643c
      flags: 0
    RecentlyUsedSceneGuid-8:
      value: 540956520402500a5f5a097645250644434f482e782c253178704e36b4b6603b
      flags: 0
    vcSharedLogLevel:
      value: 0d5e400f0650
      flags: 0
  m_VCAutomaticAdd: 1
  m_VCDebugCom: 0
  m_VCDebugCmd: 0
  m_VCDebugOut: 0
  m_SemanticMergeMode: 2
  m_DesiredImportWorkerCount: 4
  m_StandbyImportWorkerCount: 2
  m_IdleImportWorkerShutdownDelay: 60000
  m_VCShowFailedCheckout: 1
  m_VCOverwriteFailedCheckoutAssets: 1
  m_VCProjectOverlayIcons: 1
  m_VCHierarchyOverlayIcons: 1
  m_VCOtherOverlayIcons: 1
  m_VCAllowAsyncUpdate: 1
  m_ArtifactGarbageCollection: 1
